Return data used to create vis_cor plot — data-vis-cor • visdat
…
    Value

data frame

tidy dataframe of correlations

    Examples

data_vis_cor(airquality)
#> # A tibble: 36 × 3
#>    row_1   row_2     value
#>    <chr>   <chr>     <dbl>
#>  1 Ozone   Ozone    1     
#>  2 Ozone   Solar.R  0.348 
#>  3 Ozone   Wind    -0.602 
#>  4 Ozone   Temp     0.698 
#>  5 Ozone   Month    0.165 
#>  6 Ozone   Day     -0.0132
#>  7 Solar.R Ozone    0.348 
#>  8 Solar.R Solar.R  1     
#>  9 Solar.R Wind    -0.0568
#> 10 Solar.R Temp     0.276 
#> # … with 26 more rows

if (FALSE) {
#return vis_dat data for each group
library(dplyr)
airquality %>%
  group_by(Month) %>%
  data_vis_cor()
}
data_vis_cor(airquality)
#> # A tibble: 36 × 3
#>    row_1   row_2     value
#>    <chr>   <chr>     <dbl>
#>  1 Ozone   Ozone    1     
#>  2 Ozone   Solar.R  0.348 
#>  3 Ozone   Wind    -0.602 
#>  4 Ozone   Temp     0.698 
#>  5 Ozone   Month    0.165 
#>  6 Ozone   Day     -0.0132
#>  7 Solar.R Ozone    0.348 
#>  8 Solar.R Solar.R  1     
#>  9 Solar.R Wind    -0.0568
#> 10 Solar.R Temp     0.276 
#> # … with 26 more rows
…
